==================================================   Thread 0   ==================================================
//Stack content 
fork(r(v)+3)
v = New(2)

//SymTable content 

//Out content 
==================================================

==================================================   Thread 1   ==================================================
//Stack content 
fork(r(v)+3)
v = New(2)

//SymTable content 

//Out content 
==================================================

==================================================   Thread 0   ==================================================
//Stack content 
fork(r(v)+3)

//SymTable content 
v->0

//Out content 
==================================================

==================================================   Thread 1   ==================================================
//Stack content 
fork(r(v)+3)

//SymTable content 
v->0

//Out content 
==================================================

==================================================   Thread 0   ==================================================
//Stack content 

//SymTable content 
v->0

//Out content 
==================================================

==================================================   Thread 1   ==================================================
//Stack content 

//SymTable content 
v->0

//Out content 
==================================================

==================================================   Thread 2   ==================================================
//Stack content 

//SymTable content 
v->0

//Out content 
5
==================================================

==================================================   Thread 3   ==================================================
//Stack content 

//SymTable content 
v->0

//Out content 
5
==================================================

